06 - Make a Plot that Summarizes Many Panicles • ptrapr
…
This is how the summarized dataset looks like.

summarized_panicles

## # A tibble: 109 x 4
## # Groups:   primary_rank [13]
##    primary_rank secondary_rank     n nodes_downstream
##           <int>          <int> <int>            <dbl>
##  1            1              1     9            2.78 
##  2            1              2     9            1.67 
##  3            1              3     9            1.67 
##  4            1              4     8            0.889
##  5            1              5     8            0.889
##  6            1              6     8            0.889
##  7            1              7     7            0.778
##  8            1              8     6            0.667
##  9            1              9     4            0.444
## 10            2              1     9            3.11 
## # … with 99 more rows
…
